%
M48
M72
T01C0.01378
T02C0.01575
T03C0.02362
T04C0.03937
T05C0.04000
T06C0.04724
T07C0.05118
T08C0.05906
T09C0.07087
T10C0.10827
T11C0.15748
%
T01
X437144Y127159
X500705Y130528
X614091Y140370
T02
X49130Y10449
X70046Y12024
X58185Y20685
X58185Y28953
X69209Y33283
X105823Y43520
X130232Y46276
X141650Y35646
X172752Y36039
X178657Y40370
X171571Y45488
X211335Y41945
X219602Y47457
X230626Y46276
X249917Y48638
X257004Y47850
X257004Y52181
X268291Y51787
X268815Y47457
X269220Y43137
X257004Y43126
X287713Y33283
X287713Y28953
X266059Y30134
X249995Y30134
X278461Y17732
X266846Y16354
X244012Y16354
X217240Y16354
X182594Y20291
X175508Y24622
X151098Y25409
X104642Y13992
X105823Y8874
X184563Y62417
X184169Y81315
X201886Y86827
X208972Y89976
X225508Y86433
X246374Y86433
X251492Y76591
X266846Y76197
X266846Y70291
X257004Y70685
X255823Y66354
X266846Y66317
X250311Y62024
X284169Y72654
X321177Y80134
X341650Y89189
X363303Y87614
X363697Y80528
X375902Y75803
X362516Y70685
X345193Y66748
X337713Y62024
X342437Y58899
X362516Y64386
X363303Y57693
X371177Y54962
X362122Y52181
X394799Y53756
X397555Y61236
X399883Y65567
X391256Y67142
X394406Y70291
X415272Y78165
X420390Y78165
X432201Y71866
X478264Y60055
X490862Y50213
X511605Y40748
X523146Y38008
X518421Y32890
X498736Y27772
X511728Y26197
X497161Y23441
X538106Y23441
X585350Y34465
X550705Y45094
X608579Y55331
X629839Y62417
X594012Y76197
X581807Y80528
X585350Y83283
X577870Y77378
X539681Y67535
X537319Y62811
X545261Y61956
X518421Y68323
X500311Y81709
X518028Y85252
X548736Y96276
X516453Y103756
X503461Y107693
X526295Y110055
X556217Y110449
X582988Y99425
X605035Y96276
X633382Y109268
X557398Y123835
X529051Y128165
X493618Y118717
X482594Y124228
X444406Y119110
X427083Y120291
X409760Y116748
X402280Y107693
X397555Y107299
X392831Y107693
X388500Y106906
X383776Y107693
X379051Y107693
X355035Y108480
X349917Y107693
X355429Y113205
X320783Y113205
X303461Y116748
X283382Y112811
X262909Y105724
X262516Y101787
X295980Y101394
X316453Y106537
X320783Y106906
X319602Y91945
X314878Y91945
X379839Y97457
X384169Y97457
X388894Y97457
X393224Y97457
X397555Y97457
X397949Y93126
X413188Y90764
X399917Y85646
X427083Y102969
X408185Y106906
X479051Y108087
X479051Y98244
X408185Y132890
X351098Y135646
X340862Y135646
X316453Y131315
X282594Y122654
X446374Y49425
X466453Y38402
X490862Y37614
X421571Y29740
X412516Y39976
X396374Y42339
X387319Y39189
X369209Y39583
X324327Y39189
X303854Y46276
X318421Y17535
X326689Y8874
X379051Y9737
X398736Y9661
X422358Y16748
X615272Y15173
X635350Y138402
X600705Y156118
T03
X520783Y119504
X550705Y117535
X562516Y104543
X295390Y108835
X225114Y51787
X124327Y34858
X126295Y13992
X345980Y15961
X362122Y15961
T04
X351610Y60134
X351610Y70134
X351610Y80134
X175508Y105331
X145193Y105331
X114484Y105724
X34760Y103913
X34760Y117693
X34760Y131472
X75390Y141197
X89169Y141197
X102949Y141197
X116728Y141197
X140390Y141197
X154169Y141197
X167949Y141197
X181728Y141197
X299642Y141591
X309642Y141591
X319642Y141591
X329642Y141591
X339642Y141591
X349642Y141591
X359642Y141591
X369642Y141591
X379642Y141591
X389642Y141591
X399642Y141591
X409642Y141591
X419642Y141591
X429642Y141591
X439642Y141591
X449642Y141591
X459642Y141591
X469642Y141591
X479642Y141591
X489642Y141591
X489642Y151591
X479642Y151591
X469642Y151591
X459642Y151591
X449642Y151591
X439642Y151591
X429642Y151591
X419642Y151591
X409642Y151591
X399642Y151591
X389642Y151591
X379642Y151591
X369642Y151591
X359642Y151591
X349642Y151591
X339642Y151591
X329642Y151591
X319642Y151591
X309642Y151591
X299642Y151591
X34760Y90134
X109760Y65173
X149130Y75016
X616138Y72024
X616138Y62024
X616138Y82024
T05
X254051Y96354
X244051Y96354
X234051Y96354
T06
X229917Y23520
X239917Y23520
X249917Y23520
X259917Y23520
X272516Y23598
X282516Y23598
X292516Y23598
X302516Y23598
X312516Y23598
X322516Y23598
X406374Y22654
X416374Y22654
X426374Y22654
X436374Y22654
X446374Y22654
X456374Y22654
X219917Y23520
X209917Y23520
X533710Y148244
X543710Y148244
X555062Y148244
X565062Y148244
X576413Y148244
X586413Y148244
X598972Y148244
X608972Y148244
X618972Y148244
T07
X206846Y142220
X184681Y119819
X206846Y110724
X137437Y119819
X119681Y119819
X72437Y119819
X55272Y99898
X72437Y71787
X96059Y63913
X119681Y71787
X137437Y71787
X161059Y63913
X184681Y71787
X55272Y142220
T08
X237319Y158874
X252673Y158874
T09
X391610Y125646
X576138Y127535
X576138Y16512
X391610Y14622
T10
X280469Y56039
X508815Y56039
X508815Y146591
X280469Y146591
T11
X27870Y157693
X27870Y15961
X634169Y15961
X634169Y157693
M30
